{
	"pattrstorage" : 	{
		"name" : "freeze.storage",
		"slots" : 		{
			"1" : 			{
				"id" : 1,
				"data" : 				{
					"Direction" : [ 0.0 ],
					"Record" : [ 1.0 ],
					"Scrub" : [ 1.0 ],
					"gain" : [ 0.0 ],
					"on/off" : [ 0.0 ],
					"scrub_rate" : [ 0.01 ],
					"Freq::lfo_depth" : [ 0.0 ],
					"Freq::lfo_depth[1]" : [ 0.0 ],
					"Freq::lfo_mode" : [ 0.0 ],
					"Freq::lfo_rate" : [ 0.0 ],
					"Freq::trans_pos" : [ 0.0 ],
					"Freq[1]::lfo_depth" : [ 0.0 ],
					"Freq[1]::lfo_depth[1]" : [ 0.0 ],
					"Freq[1]::lfo_mode" : [ 0.0 ],
					"Freq[1]::lfo_rate" : [ 0.0 ],
					"Freq[1]::trans_pos" : [ 0.0 ],
					"Pan::lfo_depth" : [ 0.0 ],
					"Pan::lfo_mode" : [ 0.0 ],
					"Pan::lfo_pos" : [ 0.0 ],
					"Pan::lfo_rate" : [ 0.0 ]
				}

			}
,
			"2" : 			{
				"id" : 2,
				"data" : 				{
					"Direction" : [ 0.0 ],
					"Record" : [ 1.0 ],
					"Scrub" : [ 1.0 ],
					"gain" : [ 0.0 ],
					"on/off" : [ 0.0 ],
					"scrub_rate" : [ 0.01 ],
					"Freq::lfo_depth" : [ 0.0 ],
					"Freq::lfo_depth[1]" : [ 0.0 ],
					"Freq::lfo_mode" : [ 0.0 ],
					"Freq::lfo_rate" : [ 0.0 ],
					"Freq::trans_pos" : [ 0.0 ],
					"Freq[1]::lfo_depth" : [ 0.0 ],
					"Freq[1]::lfo_depth[1]" : [ 0.0 ],
					"Freq[1]::lfo_mode" : [ 0.0 ],
					"Freq[1]::lfo_rate" : [ 0.0 ],
					"Freq[1]::trans_pos" : [ 0.0 ],
					"Pan::lfo_depth" : [ 0.0 ],
					"Pan::lfo_mode" : [ 0.0 ],
					"Pan::lfo_pos" : [ -100.0 ],
					"Pan::lfo_rate" : [ 0.0 ]
				}

			}
,
			"8" : 			{
				"id" : 8,
				"data" : 				{
					"Direction" : [ 0.0 ],
					"Record" : [ 1.0 ],
					"Scrub" : [ 1.0 ],
					"gain" : [ 0.0 ],
					"on/off" : [ 0.0 ],
					"scrub_rate" : [ 0.01 ],
					"Freq::lfo_depth" : [ 0.0 ],
					"Freq::lfo_depth[1]" : [ 0.0 ],
					"Freq::lfo_mode" : [ 0.0 ],
					"Freq::lfo_rate" : [ 0.0 ],
					"Freq::trans_pos" : [ -1200.0 ],
					"Freq[1]::lfo_depth" : [ 0.0 ],
					"Freq[1]::lfo_depth[1]" : [ 0.0 ],
					"Freq[1]::lfo_mode" : [ 0.0 ],
					"Freq[1]::lfo_rate" : [ 0.0 ],
					"Freq[1]::trans_pos" : [ 0.0 ],
					"Pan::lfo_depth" : [ 0.0 ],
					"Pan::lfo_mode" : [ 0.0 ],
					"Pan::lfo_pos" : [ 0.0 ],
					"Pan::lfo_rate" : [ 0.0 ]
				}

			}

		}

	}

}
