{
	"pattrstorage" : 	{
		"name" : "harm.storage",
		"slots" : 		{
			"1" : 			{
				"id" : 1,
				"data" : 				{
					"AudioOutputGain" : [ -3.0 ],
					"Delay[4]" : [ 0.0 ],
					"Detune" : [ 0.0 ],
					"Dry/Wet" : [ 74.0 ],
					"Feedback" : [ 50.0 ],
					"PanSpread" : [ 0.0 ],
					"Pan[5]" : [ 0.0 ],
					"PitchTable" : [ 48, 22, 71, 27, 77, 24 ],
					"SpecEnv" : [ 1.0 ],
					"Spread" : [ 0.0 ],
					"live.text" : [ 0.0 ],
					"live.text[1]" : [  ],
					"SuperVP.HarmTransVoice[1]::Delay" : [ 0.0 ],
					"SuperVP.HarmTransVoice[1]::EnvPres" : [ 1.0 ],
					"SuperVP.HarmTransVoice[1]::Gain" : [ 0.0 ],
					"SuperVP.HarmTransVoice[1]::Pan" : [ 0.393701 ],
					"SuperVP.HarmTransVoice[1]::Pitch" : [ -1200.0 ],
					"SuperVP.HarmTransVoice[1]::live.text" : [ 1.0 ],
					"SuperVP.HarmTransVoice[2]::Delay" : [ 0.0 ],
					"SuperVP.HarmTransVoice[2]::EnvPres" : [ 1.0 ],
					"SuperVP.HarmTransVoice[2]::Gain" : [ 0.0 ],
					"SuperVP.HarmTransVoice[2]::Pan" : [ 0.393701 ],
					"SuperVP.HarmTransVoice[2]::Pitch" : [ 1700.0 ],
					"SuperVP.HarmTransVoice[2]::live.text" : [ 1.0 ],
					"SuperVP.HarmTransVoice[3]::Delay" : [ 0.0 ],
					"SuperVP.HarmTransVoice[3]::EnvPres" : [ 1.0 ],
					"SuperVP.HarmTransVoice[3]::Gain" : [ 0.0 ],
					"SuperVP.HarmTransVoice[3]::Pan" : [ 0.393701 ],
					"SuperVP.HarmTransVoice[3]::Pitch" : [ 0.0 ],
					"SuperVP.HarmTransVoice[3]::live.text" : [ 0.0 ],
					"SuperVP.HarmTransVoice[5]::Delay" : [ 0.0 ],
					"SuperVP.HarmTransVoice[5]::EnvPres" : [ 1.0 ],
					"SuperVP.HarmTransVoice[5]::Gain" : [ 0.0 ],
					"SuperVP.HarmTransVoice[5]::Pan" : [ 0.393701 ],
					"SuperVP.HarmTransVoice[5]::Pitch" : [ 1100.0 ],
					"SuperVP.HarmTransVoice[5]::live.text" : [ 1.0 ],
					"patcher::EnvLpcOrder" : [ 12.0 ],
					"patcher::EnvMaxFreq" : [ 500.0 ],
					"patcher::EnvMode" : [ 0.0 ],
					"patcher::EnvScale" : [ 1.0 ],
					"patcher::EnvScaleEnable" : [ 0.0 ],
					"patcher::EnvTransp" : [ -1125.0 ],
					"patcher::EnvTranspEnable" : [ 0.0 ],
					"patcher::FFTOversamp" : [ 0.0 ],
					"patcher::Oversampling" : [ 2.0 ],
					"patcher::PreserveStereo" : [ 0.0 ],
					"patcher::PreserveTransients" : [ 1.0 ],
					"patcher::PreserveWaveform" : [ 0.0 ],
					"patcher::RemixEnable" : [ 0.0 ],
					"patcher::RemixError" : [ 0.1 ],
					"patcher::RemixMode" : [ 0.0 ],
					"patcher::RemixNoise" : [ 1.79684 ],
					"patcher::RemixRelax" : [ 20.0 ],
					"patcher::RemixSinus" : [ 1.763867 ],
					"patcher::RemixTransients" : [ 1.79684 ],
					"patcher::TranspMode" : [ 0.0 ],
					"patcher::WindowSize" : [ 12.0 ]
				}

			}
,
			"2" : 			{
				"id" : 2,
				"data" : 				{
					"AudioOutputGain" : [ -3.0 ],
					"Delay[4]" : [ 0.0 ],
					"Detune" : [ 0.0 ],
					"Dry/Wet" : [ 74.0 ],
					"Feedback" : [ 50.0 ],
					"PanSpread" : [ 0.0 ],
					"Pan[5]" : [ 0.0 ],
					"PitchTable" : [ 48, 27, 50, 29, 52, 29 ],
					"SpecEnv" : [ 1.0 ],
					"Spread" : [ 0.0 ],
					"live.text" : [ 0.0 ],
					"live.text[1]" : [  ],
					"SuperVP.HarmTransVoice[1]::Delay" : [ 0.0 ],
					"SuperVP.HarmTransVoice[1]::EnvPres" : [ 1.0 ],
					"SuperVP.HarmTransVoice[1]::Gain" : [ 0.0 ],
					"SuperVP.HarmTransVoice[1]::Pan" : [ 0.393701 ],
					"SuperVP.HarmTransVoice[1]::Pitch" : [ -1200.0 ],
					"SuperVP.HarmTransVoice[1]::live.text" : [ 1.0 ],
					"SuperVP.HarmTransVoice[2]::Delay" : [ 0.0 ],
					"SuperVP.HarmTransVoice[2]::EnvPres" : [ 1.0 ],
					"SuperVP.HarmTransVoice[2]::Gain" : [ 0.0 ],
					"SuperVP.HarmTransVoice[2]::Pan" : [ 0.393701 ],
					"SuperVP.HarmTransVoice[2]::Pitch" : [ -800.0 ],
					"SuperVP.HarmTransVoice[2]::live.text" : [ 1.0 ],
					"SuperVP.HarmTransVoice[3]::Delay" : [ 0.0 ],
					"SuperVP.HarmTransVoice[3]::EnvPres" : [ 1.0 ],
					"SuperVP.HarmTransVoice[3]::Gain" : [ 0.0 ],
					"SuperVP.HarmTransVoice[3]::Pan" : [ 0.393701 ],
					"SuperVP.HarmTransVoice[3]::Pitch" : [ 0.0 ],
					"SuperVP.HarmTransVoice[3]::live.text" : [ 0.0 ],
					"SuperVP.HarmTransVoice[5]::Delay" : [ 0.0 ],
					"SuperVP.HarmTransVoice[5]::EnvPres" : [ 1.0 ],
					"SuperVP.HarmTransVoice[5]::Gain" : [ 0.0 ],
					"SuperVP.HarmTransVoice[5]::Pan" : [ 0.393701 ],
					"SuperVP.HarmTransVoice[5]::Pitch" : [ -1000.0 ],
					"SuperVP.HarmTransVoice[5]::live.text" : [ 1.0 ],
					"patcher::EnvLpcOrder" : [ 12.0 ],
					"patcher::EnvMaxFreq" : [ 500.0 ],
					"patcher::EnvMode" : [ 0.0 ],
					"patcher::EnvScale" : [ 1.0 ],
					"patcher::EnvScaleEnable" : [ 0.0 ],
					"patcher::EnvTransp" : [ -1125.0 ],
					"patcher::EnvTranspEnable" : [ 0.0 ],
					"patcher::FFTOversamp" : [ 0.0 ],
					"patcher::Oversampling" : [ 2.0 ],
					"patcher::PreserveStereo" : [ 0.0 ],
					"patcher::PreserveTransients" : [ 1.0 ],
					"patcher::PreserveWaveform" : [ 0.0 ],
					"patcher::RemixEnable" : [ 0.0 ],
					"patcher::RemixError" : [ 0.1 ],
					"patcher::RemixMode" : [ 0.0 ],
					"patcher::RemixNoise" : [ 0.181178 ],
					"patcher::RemixRelax" : [ 20.0 ],
					"patcher::RemixSinus" : [ 0.247124 ],
					"patcher::RemixTransients" : [ 0.115233 ],
					"patcher::TranspMode" : [ 0.0 ],
					"patcher::WindowSize" : [ 12.0 ]
				}

			}
,
			"3" : 			{
				"id" : 3,
				"data" : 				{
					"AudioOutputGain" : [ -3.0002 ],
					"Delay[4]" : [ 0.0 ],
					"Detune" : [ 0.0 ],
					"Dry/Wet" : [ 74.000214 ],
					"Feedback" : [ 50.000198 ],
					"PanSpread" : [ 0.0 ],
					"Pan[5]" : [ 0.0 ],
					"PitchTable" : [ 48, 22, 71, 27, 77, 24 ],
					"SpecEnv" : [ 1.0 ],
					"Spread" : [ 0.0 ],
					"live.text" : [ 0.0 ],
					"live.text[1]" : [  ],
					"SuperVP.HarmTransVoice[1]::Delay" : [ 0.0 ],
					"SuperVP.HarmTransVoice[1]::EnvPres" : [ 1.0 ],
					"SuperVP.HarmTransVoice[1]::Gain" : [ 0.0 ],
					"SuperVP.HarmTransVoice[1]::Pan" : [ 0.0 ],
					"SuperVP.HarmTransVoice[1]::Pitch" : [ -1200.0 ],
					"SuperVP.HarmTransVoice[1]::live.text" : [ 1.0 ],
					"SuperVP.HarmTransVoice[2]::Delay" : [ 0.0 ],
					"SuperVP.HarmTransVoice[2]::EnvPres" : [ 1.0 ],
					"SuperVP.HarmTransVoice[2]::Gain" : [ 0.0 ],
					"SuperVP.HarmTransVoice[2]::Pan" : [ 0.0 ],
					"SuperVP.HarmTransVoice[2]::Pitch" : [ 1700.0 ],
					"SuperVP.HarmTransVoice[2]::live.text" : [ 1.0 ],
					"SuperVP.HarmTransVoice[3]::Delay" : [ 0.0 ],
					"SuperVP.HarmTransVoice[3]::EnvPres" : [ 1.0 ],
					"SuperVP.HarmTransVoice[3]::Gain" : [ 0.0 ],
					"SuperVP.HarmTransVoice[3]::Pan" : [ 0.0 ],
					"SuperVP.HarmTransVoice[3]::Pitch" : [ 0.0 ],
					"SuperVP.HarmTransVoice[3]::live.text" : [ 0.0 ],
					"SuperVP.HarmTransVoice[5]::Delay" : [ 0.0 ],
					"SuperVP.HarmTransVoice[5]::EnvPres" : [ 1.0 ],
					"SuperVP.HarmTransVoice[5]::Gain" : [ 0.0 ],
					"SuperVP.HarmTransVoice[5]::Pan" : [ 0.0 ],
					"SuperVP.HarmTransVoice[5]::Pitch" : [ 1100.0 ],
					"SuperVP.HarmTransVoice[5]::live.text" : [ 1.0 ],
					"patcher::EnvLpcOrder" : [ 12.000198 ],
					"patcher::EnvMaxFreq" : [ 500.000244 ],
					"patcher::EnvMode" : [ 0.0 ],
					"patcher::EnvScale" : [ 1.0002 ],
					"patcher::EnvScaleEnable" : [ 1.0 ],
					"patcher::EnvTransp" : [ -1125.0 ],
					"patcher::EnvTranspEnable" : [ 1.0 ],
					"patcher::FFTOversamp" : [ 0.0 ],
					"patcher::Oversampling" : [ 2.0 ],
					"patcher::PreserveStereo" : [ 0.0 ],
					"patcher::PreserveTransients" : [ 1.0 ],
					"patcher::PreserveWaveform" : [ 0.0 ],
					"patcher::RemixEnable" : [ 1.0 ],
					"patcher::RemixError" : [ 0.1002 ],
					"patcher::RemixMode" : [ 0.0 ],
					"patcher::RemixNoise" : [ 1.79704 ],
					"patcher::RemixRelax" : [ 20.000198 ],
					"patcher::RemixSinus" : [ 1.764067 ],
					"patcher::RemixTransients" : [ 1.79704 ],
					"patcher::TranspMode" : [ 0.0 ],
					"patcher::WindowSize" : [ 12.0 ]
				}

			}
,
			"7" : 			{
				"id" : 7,
				"data" : 				{
					"AudioOutputGain" : [ -3.0 ],
					"Delay[4]" : [ 0.0 ],
					"Detune" : [ 0.0 ],
					"Dry/Wet" : [ 74.0 ],
					"Feedback" : [ 13.362205 ],
					"PanSpread" : [ 0.0 ],
					"Pan[5]" : [ 0.0 ],
					"PitchTable" : [ 48, 22, 71, 27, 77, 24 ],
					"SpecEnv" : [ 1.0 ],
					"Spread" : [ 0.0 ],
					"live.text" : [ 0.0 ],
					"live.text[1]" : [  ],
					"SuperVP.HarmTransVoice[1]::Delay" : [ 0.0 ],
					"SuperVP.HarmTransVoice[1]::EnvPres" : [ 1.0 ],
					"SuperVP.HarmTransVoice[1]::Gain" : [ 0.0 ],
					"SuperVP.HarmTransVoice[1]::Pan" : [ 0.393701 ],
					"SuperVP.HarmTransVoice[1]::Pitch" : [ -1200.0 ],
					"SuperVP.HarmTransVoice[1]::live.text" : [ 1.0 ],
					"SuperVP.HarmTransVoice[2]::Delay" : [ 0.0 ],
					"SuperVP.HarmTransVoice[2]::EnvPres" : [ 1.0 ],
					"SuperVP.HarmTransVoice[2]::Gain" : [ 0.0 ],
					"SuperVP.HarmTransVoice[2]::Pan" : [ 0.393701 ],
					"SuperVP.HarmTransVoice[2]::Pitch" : [ 1700.0 ],
					"SuperVP.HarmTransVoice[2]::live.text" : [ 1.0 ],
					"SuperVP.HarmTransVoice[3]::Delay" : [ 0.0 ],
					"SuperVP.HarmTransVoice[3]::EnvPres" : [ 1.0 ],
					"SuperVP.HarmTransVoice[3]::Gain" : [ 0.0 ],
					"SuperVP.HarmTransVoice[3]::Pan" : [ 0.393701 ],
					"SuperVP.HarmTransVoice[3]::Pitch" : [ 0.0 ],
					"SuperVP.HarmTransVoice[3]::live.text" : [ 0.0 ],
					"SuperVP.HarmTransVoice[5]::Delay" : [ 0.0 ],
					"SuperVP.HarmTransVoice[5]::EnvPres" : [ 1.0 ],
					"SuperVP.HarmTransVoice[5]::Gain" : [ 0.0 ],
					"SuperVP.HarmTransVoice[5]::Pan" : [ 0.393701 ],
					"SuperVP.HarmTransVoice[5]::Pitch" : [ 1100.0 ],
					"SuperVP.HarmTransVoice[5]::live.text" : [ 1.0 ],
					"patcher::EnvLpcOrder" : [ 12.0 ],
					"patcher::EnvMaxFreq" : [ 500.0 ],
					"patcher::EnvMode" : [ 0.0 ],
					"patcher::EnvScale" : [ 1.0 ],
					"patcher::EnvScaleEnable" : [ 0.0 ],
					"patcher::EnvTransp" : [ -1125.0 ],
					"patcher::EnvTranspEnable" : [ 0.0 ],
					"patcher::FFTOversamp" : [ 0.0 ],
					"patcher::Oversampling" : [ 2.0 ],
					"patcher::PreserveStereo" : [ 0.0 ],
					"patcher::PreserveTransients" : [ 1.0 ],
					"patcher::PreserveWaveform" : [ 0.0 ],
					"patcher::RemixEnable" : [ 0.0 ],
					"patcher::RemixError" : [ 0.1 ],
					"patcher::RemixMode" : [ 0.0 ],
					"patcher::RemixNoise" : [ 0.0 ],
					"patcher::RemixRelax" : [ 20.0 ],
					"patcher::RemixSinus" : [ 0.0 ],
					"patcher::RemixTransients" : [ 0.598513 ],
					"patcher::TranspMode" : [ 0.0 ],
					"patcher::WindowSize" : [ 12.0 ]
				}

			}
,
			"8" : 			{
				"id" : 8,
				"data" : 				{
					"AudioOutputGain" : [ -3.0 ],
					"Delay[4]" : [ 0.0 ],
					"Detune" : [ 0.0 ],
					"Dry/Wet" : [ 74.0 ],
					"Feedback" : [ 99.0 ],
					"PanSpread" : [ 0.0 ],
					"Pan[5]" : [ 0.0 ],
					"PitchTable" : [ 48, 22, 71, 27, 77, 24 ],
					"SpecEnv" : [ 1.0 ],
					"Spread" : [ 0.0 ],
					"live.text" : [ 0.0 ],
					"live.text[1]" : [ 0.0 ],
					"SuperVP.HarmTransVoice[1]::Delay" : [ 0.0 ],
					"SuperVP.HarmTransVoice[1]::EnvPres" : [ 1.0 ],
					"SuperVP.HarmTransVoice[1]::Gain" : [ 0.0 ],
					"SuperVP.HarmTransVoice[1]::Pan" : [ 0.393701 ],
					"SuperVP.HarmTransVoice[1]::Pitch" : [ -1200.0 ],
					"SuperVP.HarmTransVoice[1]::live.text" : [ 1.0 ],
					"SuperVP.HarmTransVoice[2]::Delay" : [ 0.0 ],
					"SuperVP.HarmTransVoice[2]::EnvPres" : [ 1.0 ],
					"SuperVP.HarmTransVoice[2]::Gain" : [ 0.0 ],
					"SuperVP.HarmTransVoice[2]::Pan" : [ 0.393701 ],
					"SuperVP.HarmTransVoice[2]::Pitch" : [ 1700.0 ],
					"SuperVP.HarmTransVoice[2]::live.text" : [ 1.0 ],
					"SuperVP.HarmTransVoice[3]::Delay" : [ 0.0 ],
					"SuperVP.HarmTransVoice[3]::EnvPres" : [ 1.0 ],
					"SuperVP.HarmTransVoice[3]::Gain" : [ 0.0 ],
					"SuperVP.HarmTransVoice[3]::Pan" : [ 0.393701 ],
					"SuperVP.HarmTransVoice[3]::Pitch" : [ 0.0 ],
					"SuperVP.HarmTransVoice[3]::live.text" : [ 0.0 ],
					"SuperVP.HarmTransVoice[5]::Delay" : [ 0.0 ],
					"SuperVP.HarmTransVoice[5]::EnvPres" : [ 1.0 ],
					"SuperVP.HarmTransVoice[5]::Gain" : [ 0.0 ],
					"SuperVP.HarmTransVoice[5]::Pan" : [ 0.393701 ],
					"SuperVP.HarmTransVoice[5]::Pitch" : [ 1100.0 ],
					"SuperVP.HarmTransVoice[5]::live.text" : [ 1.0 ],
					"patcher::EnvLpcOrder" : [ 12.0 ],
					"patcher::EnvMaxFreq" : [ 500.0 ],
					"patcher::EnvMode" : [ 0.0 ],
					"patcher::EnvScale" : [ 1.0 ],
					"patcher::EnvScaleEnable" : [ 0.0 ],
					"patcher::EnvTransp" : [ -1125.0 ],
					"patcher::EnvTranspEnable" : [ 0.0 ],
					"patcher::FFTOversamp" : [ 0.0 ],
					"patcher::Oversampling" : [ 2.0 ],
					"patcher::PreserveStereo" : [ 0.0 ],
					"patcher::PreserveTransients" : [ 1.0 ],
					"patcher::PreserveWaveform" : [ 0.0 ],
					"patcher::RemixEnable" : [ 0.0 ],
					"patcher::RemixError" : [ 0.1 ],
					"patcher::RemixMode" : [ 0.0 ],
					"patcher::RemixNoise" : [ 0.0 ],
					"patcher::RemixRelax" : [ 20.0 ],
					"patcher::RemixSinus" : [ 0.0 ],
					"patcher::RemixTransients" : [ 0.598513 ],
					"patcher::TranspMode" : [ 0.0 ],
					"patcher::WindowSize" : [ 12.0 ]
				}

			}

		}

	}

}
